{
	"autogen": "<none>",
	"autotag": "darwin/(amd64|arm64)|freebsd/(amd64|arm64)|linux/(386|amd64|arm|arm64|loong64|ppc64le|riscv64|s390x)|windows/(amd64|386|arm64)",
	"autoupdate": "<none>",
	"test": "darwin/(amd64|arm64)|freebsd/(amd64|arm64)|linux/(386|amd64|arm|arm64|loong64|ppc64le|riscv64|s390x)|windows/(amd64|386|arm64)"
}
